00:07:48.931 [dispatcher] INFO  pw.elka.agents.DispatcherAgent - =====RESULTS=====
00:07:48.931 [dispatcher] INFO  pw.elka.agents.DispatcherAgent - TP= 434
00:07:48.931 [dispatcher] INFO  pw.elka.agents.DispatcherAgent - FP= 23
00:07:48.931 [dispatcher] INFO  pw.elka.agents.DispatcherAgent - TN= 477
00:07:48.931 [dispatcher] INFO  pw.elka.agents.DispatcherAgent - FN= 66
00:07:48.931 [dispatcher] INFO  pw.elka.agents.DispatcherAgent - Precison= 0.949671772428884
00:07:48.931 [dispatcher] INFO  pw.elka.agents.DispatcherAgent - Accuracy= 0.911
00:07:48.931 [dispatcher] INFO  pw.elka.agents.DispatcherAgent - Fallout=  0.086
00:07:48.931 [dispatcher] INFO  pw.elka.agents.DispatcherAgent - Recall=   0.868
