00:09:08.832 [dispatcher] INFO  pw.elka.agents.DispatcherAgent - =====RESULTS=====
00:09:08.832 [dispatcher] INFO  pw.elka.agents.DispatcherAgent - TP= 413
00:09:08.832 [dispatcher] INFO  pw.elka.agents.DispatcherAgent - FP= 11
00:09:08.832 [dispatcher] INFO  pw.elka.agents.DispatcherAgent - TN= 489
00:09:08.832 [dispatcher] INFO  pw.elka.agents.DispatcherAgent - FN= 87
00:09:08.832 [dispatcher] INFO  pw.elka.agents.DispatcherAgent - Precison= 0.9740566037735849
00:09:08.832 [dispatcher] INFO  pw.elka.agents.DispatcherAgent - Accuracy= 0.902
00:09:08.832 [dispatcher] INFO  pw.elka.agents.DispatcherAgent - Fallout=  0.152
00:09:08.833 [dispatcher] INFO  pw.elka.agents.DispatcherAgent - Recall=   0.826
