00:36:45.099 [dispatcher] INFO  pw.elka.agents.DispatcherAgent - =====RESULTS=====
00:36:45.100 [dispatcher] INFO  pw.elka.agents.DispatcherAgent - TP= 252
00:36:45.100 [dispatcher] INFO  pw.elka.agents.DispatcherAgent - FP= 0
00:36:45.100 [dispatcher] INFO  pw.elka.agents.DispatcherAgent - TN= 500
00:36:45.100 [dispatcher] INFO  pw.elka.agents.DispatcherAgent - FN= 248
00:36:45.100 [dispatcher] INFO  pw.elka.agents.DispatcherAgent - Precison= 1.0
00:36:45.100 [dispatcher] INFO  pw.elka.agents.DispatcherAgent - Accuracy= 0.752
00:36:45.100 [dispatcher] INFO  pw.elka.agents.DispatcherAgent - Fallout=  0.496
00:36:45.100 [dispatcher] INFO  pw.elka.agents.DispatcherAgent - Recall=   0.504
