00:31:45.056 [dispatcher] INFO  pw.elka.agents.DispatcherAgent - =====RESULTS=====
00:31:45.056 [dispatcher] INFO  pw.elka.agents.DispatcherAgent - TP= 437
00:31:45.056 [dispatcher] INFO  pw.elka.agents.DispatcherAgent - FP= 26
00:31:45.056 [dispatcher] INFO  pw.elka.agents.DispatcherAgent - TN= 474
00:31:45.056 [dispatcher] INFO  pw.elka.agents.DispatcherAgent - FN= 63
00:31:45.056 [dispatcher] INFO  pw.elka.agents.DispatcherAgent - Precison= 0.9438444924406048
00:31:45.056 [dispatcher] INFO  pw.elka.agents.DispatcherAgent - Accuracy= 0.911
00:31:45.056 [dispatcher] INFO  pw.elka.agents.DispatcherAgent - Fallout=  0.074
00:31:45.056 [dispatcher] INFO  pw.elka.agents.DispatcherAgent - Recall=   0.874
