00:11:28.137 [dispatcher] INFO  pw.elka.agents.DispatcherAgent - Not enough classifiers. Reseting behaviour
00:13:43.575 [dispatcher] INFO  pw.elka.agents.DispatcherAgent - =====RESULTS=====
00:13:43.575 [dispatcher] INFO  pw.elka.agents.DispatcherAgent - TP= 446
00:13:43.575 [dispatcher] INFO  pw.elka.agents.DispatcherAgent - FP= 15
00:13:43.576 [dispatcher] INFO  pw.elka.agents.DispatcherAgent - TN= 485
00:13:43.576 [dispatcher] INFO  pw.elka.agents.DispatcherAgent - FN= 54
00:13:43.576 [dispatcher] INFO  pw.elka.agents.DispatcherAgent - Precison= 0.9674620390455532
00:13:43.576 [dispatcher] INFO  pw.elka.agents.DispatcherAgent - Accuracy= 0.931
00:13:43.576 [dispatcher] INFO  pw.elka.agents.DispatcherAgent - Fallout=  0.078
00:13:43.576 [dispatcher] INFO  pw.elka.agents.DispatcherAgent - Recall=   0.892
