00:26:56.750 [dispatcher] INFO  pw.elka.agents.DispatcherAgent - =====RESULTS=====
00:26:56.751 [dispatcher] INFO  pw.elka.agents.DispatcherAgent - TP= 358
00:26:56.751 [dispatcher] INFO  pw.elka.agents.DispatcherAgent - FP= 7
00:26:56.751 [dispatcher] INFO  pw.elka.agents.DispatcherAgent - TN= 493
00:26:56.751 [dispatcher] INFO  pw.elka.agents.DispatcherAgent - FN= 142
00:26:56.751 [dispatcher] INFO  pw.elka.agents.DispatcherAgent - Precison= 0.9808219178082191
00:26:56.751 [dispatcher] INFO  pw.elka.agents.DispatcherAgent - Accuracy= 0.851
00:26:56.751 [dispatcher] INFO  pw.elka.agents.DispatcherAgent - Fallout=  0.27
00:26:56.751 [dispatcher] INFO  pw.elka.agents.DispatcherAgent - Recall=   0.716
