00:37:26.753 [dispatcher] INFO  pw.elka.agents.DispatcherAgent - =====RESULTS=====
00:37:26.754 [dispatcher] INFO  pw.elka.agents.DispatcherAgent - TP= 419
00:37:26.754 [dispatcher] INFO  pw.elka.agents.DispatcherAgent - FP= 6
00:37:26.754 [dispatcher] INFO  pw.elka.agents.DispatcherAgent - TN= 494
00:37:26.754 [dispatcher] INFO  pw.elka.agents.DispatcherAgent - FN= 81
00:37:26.754 [dispatcher] INFO  pw.elka.agents.DispatcherAgent - Precison= 0.9858823529411764
00:37:26.754 [dispatcher] INFO  pw.elka.agents.DispatcherAgent - Accuracy= 0.913
00:37:26.754 [dispatcher] INFO  pw.elka.agents.DispatcherAgent - Fallout=  0.15
00:37:26.754 [dispatcher] INFO  pw.elka.agents.DispatcherAgent - Recall=   0.838
