00:35:44.980 [dispatcher] INFO  pw.elka.agents.DispatcherAgent - =====RESULTS=====
00:35:44.980 [dispatcher] INFO  pw.elka.agents.DispatcherAgent - TP= 331
00:35:44.981 [dispatcher] INFO  pw.elka.agents.DispatcherAgent - FP= 0
00:35:44.981 [dispatcher] INFO  pw.elka.agents.DispatcherAgent - TN= 500
00:35:44.981 [dispatcher] INFO  pw.elka.agents.DispatcherAgent - FN= 169
00:35:44.981 [dispatcher] INFO  pw.elka.agents.DispatcherAgent - Precison= 1.0
00:35:44.981 [dispatcher] INFO  pw.elka.agents.DispatcherAgent - Accuracy= 0.831
00:35:44.981 [dispatcher] INFO  pw.elka.agents.DispatcherAgent - Fallout=  0.338
00:35:44.981 [dispatcher] INFO  pw.elka.agents.DispatcherAgent - Recall=   0.662
