00:32:37.934 [dispatcher] INFO  pw.elka.agents.DispatcherAgent - =====RESULTS=====
00:32:37.934 [dispatcher] INFO  pw.elka.agents.DispatcherAgent - TP= 401
00:32:37.934 [dispatcher] INFO  pw.elka.agents.DispatcherAgent - FP= 15
00:32:37.934 [dispatcher] INFO  pw.elka.agents.DispatcherAgent - TN= 485
00:32:37.934 [dispatcher] INFO  pw.elka.agents.DispatcherAgent - FN= 99
00:32:37.934 [dispatcher] INFO  pw.elka.agents.DispatcherAgent - Precison= 0.9639423076923077
00:32:37.934 [dispatcher] INFO  pw.elka.agents.DispatcherAgent - Accuracy= 0.886
00:32:37.934 [dispatcher] INFO  pw.elka.agents.DispatcherAgent - Fallout=  0.168
00:32:37.934 [dispatcher] INFO  pw.elka.agents.DispatcherAgent - Recall=   0.802
