00:02:48.180 [dispatcher] INFO  pw.elka.agents.DispatcherAgent - Not enough classifiers. Reseting behaviour
00:06:43.198 [dispatcher] INFO  pw.elka.agents.DispatcherAgent - =====RESULTS=====
00:06:43.198 [dispatcher] INFO  pw.elka.agents.DispatcherAgent - TP= 438
00:06:43.198 [dispatcher] INFO  pw.elka.agents.DispatcherAgent - FP= 30
00:06:43.198 [dispatcher] INFO  pw.elka.agents.DispatcherAgent - TN= 470
00:06:43.198 [dispatcher] INFO  pw.elka.agents.DispatcherAgent - FN= 62
00:06:43.199 [dispatcher] INFO  pw.elka.agents.DispatcherAgent - Precison= 0.9358974358974359
00:06:43.199 [dispatcher] INFO  pw.elka.agents.DispatcherAgent - Accuracy= 0.908
00:06:43.199 [dispatcher] INFO  pw.elka.agents.DispatcherAgent - Fallout=  0.064
00:06:43.199 [dispatcher] INFO  pw.elka.agents.DispatcherAgent - Recall=   0.876
