09:34:39.608 [dispatcher] INFO  pw.elka.agents.DispatcherAgent - Not enough classifiers. Reseting behaviour
09:36:08.788 [dispatcher] INFO  pw.elka.agents.DispatcherAgent - =====RESULTS=====
09:36:08.788 [dispatcher] INFO  pw.elka.agents.DispatcherAgent - TP= 478
09:36:08.788 [dispatcher] INFO  pw.elka.agents.DispatcherAgent - FP= 5
09:36:08.788 [dispatcher] INFO  pw.elka.agents.DispatcherAgent - TN= 495
09:36:08.788 [dispatcher] INFO  pw.elka.agents.DispatcherAgent - FN= 22
09:36:08.788 [dispatcher] INFO  pw.elka.agents.DispatcherAgent - Precison= 0.989648033126294
09:36:08.788 [dispatcher] INFO  pw.elka.agents.DispatcherAgent - Accuracy= 0.973
09:36:08.788 [dispatcher] INFO  pw.elka.agents.DispatcherAgent - Fallout=  0.034
09:36:08.788 [dispatcher] INFO  pw.elka.agents.DispatcherAgent - Recall=   0.956
