09:56:40.328 [dispatcher] INFO  pw.elka.agents.DispatcherAgent - =====RESULTS=====
09:56:40.328 [dispatcher] INFO  pw.elka.agents.DispatcherAgent - TP= 400
09:56:40.328 [dispatcher] INFO  pw.elka.agents.DispatcherAgent - FP= 0
09:56:40.328 [dispatcher] INFO  pw.elka.agents.DispatcherAgent - TN= 500
09:56:40.328 [dispatcher] INFO  pw.elka.agents.DispatcherAgent - FN= 100
09:56:40.328 [dispatcher] INFO  pw.elka.agents.DispatcherAgent - Precison= 1.0
09:56:40.328 [dispatcher] INFO  pw.elka.agents.DispatcherAgent - Accuracy= 0.9
09:56:40.328 [dispatcher] INFO  pw.elka.agents.DispatcherAgent - Fallout=  0.2
09:56:40.328 [dispatcher] INFO  pw.elka.agents.DispatcherAgent - Recall=   0.8
