09:47:48.550 [dispatcher] INFO  pw.elka.agents.DispatcherAgent - =====RESULTS=====
09:47:48.550 [dispatcher] INFO  pw.elka.agents.DispatcherAgent - TP= 430
09:47:48.550 [dispatcher] INFO  pw.elka.agents.DispatcherAgent - FP= 6
09:47:48.550 [dispatcher] INFO  pw.elka.agents.DispatcherAgent - TN= 494
09:47:48.550 [dispatcher] INFO  pw.elka.agents.DispatcherAgent - FN= 70
09:47:48.551 [dispatcher] INFO  pw.elka.agents.DispatcherAgent - Precison= 0.9862385321100917
09:47:48.551 [dispatcher] INFO  pw.elka.agents.DispatcherAgent - Accuracy= 0.924
09:47:48.551 [dispatcher] INFO  pw.elka.agents.DispatcherAgent - Fallout=  0.128
09:47:48.551 [dispatcher] INFO  pw.elka.agents.DispatcherAgent - Recall=   0.86
