09:28:11.733 [dispatcher] INFO  pw.elka.agents.DispatcherAgent - =====RESULTS=====
09:28:11.733 [dispatcher] INFO  pw.elka.agents.DispatcherAgent - TP= 473
09:28:11.733 [dispatcher] INFO  pw.elka.agents.DispatcherAgent - FP= 4
09:28:11.733 [dispatcher] INFO  pw.elka.agents.DispatcherAgent - TN= 496
09:28:11.734 [dispatcher] INFO  pw.elka.agents.DispatcherAgent - FN= 27
09:28:11.734 [dispatcher] INFO  pw.elka.agents.DispatcherAgent - Precison= 0.9916142557651991
09:28:11.734 [dispatcher] INFO  pw.elka.agents.DispatcherAgent - Accuracy= 0.969
09:28:11.734 [dispatcher] INFO  pw.elka.agents.DispatcherAgent - Fallout=  0.046
09:28:11.734 [dispatcher] INFO  pw.elka.agents.DispatcherAgent - Recall=   0.946
