09:15:09.571 [dispatcher] INFO  pw.elka.agents.DispatcherAgent - Not enough classifiers. Reseting behaviour
09:16:34.568 [dispatcher] INFO  pw.elka.agents.DispatcherAgent - =====RESULTS=====
09:16:34.568 [dispatcher] INFO  pw.elka.agents.DispatcherAgent - TP= 479
09:16:34.568 [dispatcher] INFO  pw.elka.agents.DispatcherAgent - FP= 4
09:16:34.568 [dispatcher] INFO  pw.elka.agents.DispatcherAgent - TN= 496
09:16:34.568 [dispatcher] INFO  pw.elka.agents.DispatcherAgent - FN= 21
09:16:34.568 [dispatcher] INFO  pw.elka.agents.DispatcherAgent - Precison= 0.9917184265010351
09:16:34.568 [dispatcher] INFO  pw.elka.agents.DispatcherAgent - Accuracy= 0.975
09:16:34.568 [dispatcher] INFO  pw.elka.agents.DispatcherAgent - Fallout=  0.034
09:16:34.568 [dispatcher] INFO  pw.elka.agents.DispatcherAgent - Recall=   0.958
