11:50:18.984 [dispatcher] INFO  pw.elka.agents.DispatcherAgent - =====RESULTS=====
11:50:18.984 [dispatcher] INFO  pw.elka.agents.DispatcherAgent - TP= 412
11:50:18.984 [dispatcher] INFO  pw.elka.agents.DispatcherAgent - FP= 0
11:50:18.984 [dispatcher] INFO  pw.elka.agents.DispatcherAgent - TN= 500
11:50:18.984 [dispatcher] INFO  pw.elka.agents.DispatcherAgent - FN= 88
11:50:18.984 [dispatcher] INFO  pw.elka.agents.DispatcherAgent - Precison= 1.0
11:50:18.984 [dispatcher] INFO  pw.elka.agents.DispatcherAgent - Accuracy= 0.912
11:50:18.984 [dispatcher] INFO  pw.elka.agents.DispatcherAgent - Fallout=  0.176
11:50:18.984 [dispatcher] INFO  pw.elka.agents.DispatcherAgent - Recall=   0.824
