11:45:12.386 [dispatcher] INFO  pw.elka.agents.DispatcherAgent - =====RESULTS=====
11:45:12.386 [dispatcher] INFO  pw.elka.agents.DispatcherAgent - TP= 423
11:45:12.386 [dispatcher] INFO  pw.elka.agents.DispatcherAgent - FP= 0
11:45:12.386 [dispatcher] INFO  pw.elka.agents.DispatcherAgent - TN= 500
11:45:12.386 [dispatcher] INFO  pw.elka.agents.DispatcherAgent - FN= 77
11:45:12.386 [dispatcher] INFO  pw.elka.agents.DispatcherAgent - Precison= 1.0
11:45:12.386 [dispatcher] INFO  pw.elka.agents.DispatcherAgent - Accuracy= 0.923
11:45:12.387 [dispatcher] INFO  pw.elka.agents.DispatcherAgent - Fallout=  0.154
11:45:12.387 [dispatcher] INFO  pw.elka.agents.DispatcherAgent - Recall=   0.846
