11:28:49.988 [dispatcher] INFO  pw.elka.agents.DispatcherAgent - =====RESULTS=====
11:28:49.988 [dispatcher] INFO  pw.elka.agents.DispatcherAgent - TP= 467
11:28:49.988 [dispatcher] INFO  pw.elka.agents.DispatcherAgent - FP= 2
11:28:49.988 [dispatcher] INFO  pw.elka.agents.DispatcherAgent - TN= 498
11:28:49.988 [dispatcher] INFO  pw.elka.agents.DispatcherAgent - FN= 33
11:28:49.988 [dispatcher] INFO  pw.elka.agents.DispatcherAgent - Precison= 0.9957356076759062
11:28:49.989 [dispatcher] INFO  pw.elka.agents.DispatcherAgent - Accuracy= 0.965
11:28:49.989 [dispatcher] INFO  pw.elka.agents.DispatcherAgent - Fallout=  0.062
11:28:49.989 [dispatcher] INFO  pw.elka.agents.DispatcherAgent - Recall=   0.934
