11:43:40.711 [dispatcher] INFO  pw.elka.agents.DispatcherAgent - =====RESULTS=====
11:43:40.711 [dispatcher] INFO  pw.elka.agents.DispatcherAgent - TP= 458
11:43:40.711 [dispatcher] INFO  pw.elka.agents.DispatcherAgent - FP= 7
11:43:40.711 [dispatcher] INFO  pw.elka.agents.DispatcherAgent - TN= 493
11:43:40.711 [dispatcher] INFO  pw.elka.agents.DispatcherAgent - FN= 42
11:43:40.711 [dispatcher] INFO  pw.elka.agents.DispatcherAgent - Precison= 0.9849462365591398
11:43:40.711 [dispatcher] INFO  pw.elka.agents.DispatcherAgent - Accuracy= 0.951
11:43:40.711 [dispatcher] INFO  pw.elka.agents.DispatcherAgent - Fallout=  0.07
11:43:40.711 [dispatcher] INFO  pw.elka.agents.DispatcherAgent - Recall=   0.916
