11:36:50.295 [dispatcher] INFO  pw.elka.agents.DispatcherAgent - =====RESULTS=====
11:36:50.295 [dispatcher] INFO  pw.elka.agents.DispatcherAgent - TP= 451
11:36:50.295 [dispatcher] INFO  pw.elka.agents.DispatcherAgent - FP= 4
11:36:50.295 [dispatcher] INFO  pw.elka.agents.DispatcherAgent - TN= 496
11:36:50.295 [dispatcher] INFO  pw.elka.agents.DispatcherAgent - FN= 49
11:36:50.295 [dispatcher] INFO  pw.elka.agents.DispatcherAgent - Precison= 0.9912087912087912
11:36:50.295 [dispatcher] INFO  pw.elka.agents.DispatcherAgent - Accuracy= 0.947
11:36:50.295 [dispatcher] INFO  pw.elka.agents.DispatcherAgent - Fallout=  0.09
11:36:50.295 [dispatcher] INFO  pw.elka.agents.DispatcherAgent - Recall=   0.902
