10:54:11.559 [dispatcher] INFO  pw.elka.agents.DispatcherAgent - Not enough classifiers. Reseting behaviour
10:57:05.284 [dispatcher] INFO  pw.elka.agents.DispatcherAgent - =====RESULTS=====
10:57:05.284 [dispatcher] INFO  pw.elka.agents.DispatcherAgent - TP= 479
10:57:05.284 [dispatcher] INFO  pw.elka.agents.DispatcherAgent - FP= 4
10:57:05.284 [dispatcher] INFO  pw.elka.agents.DispatcherAgent - TN= 496
10:57:05.284 [dispatcher] INFO  pw.elka.agents.DispatcherAgent - FN= 21
10:57:05.285 [dispatcher] INFO  pw.elka.agents.DispatcherAgent - Precison= 0.9917184265010351
10:57:05.285 [dispatcher] INFO  pw.elka.agents.DispatcherAgent - Accuracy= 0.975
10:57:05.285 [dispatcher] INFO  pw.elka.agents.DispatcherAgent - Fallout=  0.034
10:57:05.285 [dispatcher] INFO  pw.elka.agents.DispatcherAgent - Recall=   0.958
